<?xml version="1.0" encoding="UTF-8" standalone="no"?>
<!-- Created with Inkscape (http://www.inkscape.org/) -->

<svg
   xmlns:dc="http://purl.org/dc/elements/1.1/"
   xmlns:cc="http://creativecommons.org/ns#"
   xmlns:rdf="http://www.w3.org/1999/02/22-rdf-syntax-ns#"
   xmlns:svg="http://www.w3.org/2000/svg"
   xmlns="http://www.w3.org/2000/svg"
   xmlns:sodipodi="http://sodipodi.sourceforge.net/DTD/sodipodi-0.dtd"
   xmlns:inkscape="http://www.inkscape.org/namespaces/inkscape"
   id="svg2"
   version="1.1"
   inkscape:version="0.91 r13725"
   width="600"
   height="300"
   viewBox="0 0 600 300"
   sodipodi:docname="3.svg">
  <metadata
     id="metadata8">
    <rdf:RDF>
      <cc:Work
         rdf:about="">
        <dc:format>image/svg+xml</dc:format>
        <dc:type
           rdf:resource="http://purl.org/dc/dcmitype/StillImage" />
        <dc:title />
      </cc:Work>
    </rdf:RDF>
  </metadata>
  <defs
     id="defs6" />
  <sodipodi:namedview
     pagecolor="#ffffff"
     bordercolor="#666666"
     borderopacity="1"
     objecttolerance="10"
     gridtolerance="10"
     guidetolerance="10"
     inkscape:pageopacity="0"
     inkscape:pageshadow="2"
     inkscape:window-width="1366"
     inkscape:window-height="715"
     id="namedview4"
     showgrid="false"
     fit-margin-top="0"
     fit-margin-left="0"
     fit-margin-right="0"
     fit-margin-bottom="0"
     inkscape:zoom="1.3295775"
     inkscape:cx="115.2793"
     inkscape:cy="159.60926"
     inkscape:window-x="-8"
     inkscape:window-y="-8"
     inkscape:window-maximized="1"
     inkscape:current-layer="svg2" />
  <rect
     style="fill:#f1481a;fill-opacity:1;stroke:none;stroke-width:12;stroke-linecap:round;stroke-linejoin:round;stroke-miterlimit:4;stroke-dasharray:none;stroke-opacity:1"
     id="rect4152"
     width="300"
     height="300"
     x="0"
     y="0"
     ry="0" />
  <g
     id="g4154"
     transform="matrix(0.65753275,0.14191285,-0.14191285,0.65753275,-86.111256,-13.003015)">
    <circle
       transform="matrix(0.94237327,0.33456333,-0.33456333,0.94237327,0,0)"
       r="49.635387"
       cy="-8.3572607"
       cx="386.95544"
       id="path4146"
       style="fill:none;fill-opacity:1;fill-rule:evenodd;stroke:#ff7224;stroke-width:12.9289999;stroke-linecap:butt;stroke-linejoin:miter;stroke-miterlimit:4;stroke-dasharray:none;stroke-opacity:1" />
    <rect
       transform="matrix(0.88466852,0.46622056,-0.46622056,0.88466852,0,0)"
       ry="4.8438873"
       y="-66.614815"
       x="433.12537"
       height="9.6877747"
       width="70.797386"
       id="rect4148"
       style="fill:none;fill-opacity:1;stroke:#ff7224;stroke-width:12.9289999;stroke-miterlimit:4;stroke-dasharray:none;stroke-opacity:1" />
    <path
       sodipodi:nodetypes="cc"
       inkscape:connector-curvature="0"
       id="path4150"
       d="m 357.92075,88.445981 c 16.80948,-2.519225 33.46517,4.906992 40.69135,21.014129"
       style="fill:none;fill-opacity:1;fill-rule:evenodd;stroke:#ff7224;stroke-width:11.30207825;stroke-linecap:round;stroke-linejoin:round;stroke-miterlimit:4;stroke-dasharray:none;stroke-opacity:1" />
  </g>
  <text
     xml:space="preserve"
     style="font-style:normal;font-weight:normal;font-size:37.76353836px;line-height:125%;font-family:sans-serif;letter-spacing:0px;word-spacing:0px;fill:#ffffff;fill-opacity:1;stroke:none;stroke-width:1px;stroke-linecap:butt;stroke-linejoin:miter;stroke-opacity:1"
     x="33.720852"
     y="202.20303"
     id="text4137"
     sodipodi:linespacing="125%"><tspan
       sodipodi:role="line"
       id="tspan4139"
       x="33.720852"
       y="202.20303"
       style="font-style:normal;font-variant:normal;font-weight:bold;font-stretch:normal;font-family:'Segoe UI';-inkscape-font-specification:'Segoe UI Bold'">SCOUT STEPS</tspan></text>
  <rect
     ry="0"
     y="0"
     x="300"
     height="300"
     width="300"
     id="rect4139"
     style="fill:#f1481a;fill-opacity:1;stroke:none;stroke-width:12;stroke-linecap:round;stroke-linejoin:round;stroke-miterlimit:4;stroke-dasharray:none;stroke-opacity:1" />
</svg>
