<?xml version="1.0" encoding="UTF-8" standalone="no"?>
<!-- Created with Inkscape (http://www.inkscape.org/) -->

<svg
   xmlns:dc="http://purl.org/dc/elements/1.1/"
   xmlns:cc="http://creativecommons.org/ns#"
   xmlns:rdf="http://www.w3.org/1999/02/22-rdf-syntax-ns#"
   xmlns:svg="http://www.w3.org/2000/svg"
   xmlns="http://www.w3.org/2000/svg"
   xmlns:sodipodi="http://sodipodi.sourceforge.net/DTD/sodipodi-0.dtd"
   xmlns:inkscape="http://www.inkscape.org/namespaces/inkscape"
   width="300"
   height="300"
   viewBox="0 0 300 300"
   id="svg2"
   version="1.1"
   inkscape:version="0.91 r13725"
   sodipodi:docname="tools.svg"
   inkscape:export-filename="D:\Projects\Yackeen\assets\mohsen.png"
   inkscape:export-xdpi="90"
   inkscape:export-ydpi="90">
  <defs
     id="defs4" />
  <sodipodi:namedview
     id="base"
     pagecolor="#ffffff"
     bordercolor="#666666"
     borderopacity="1.0"
     inkscape:pageopacity="0.0"
     inkscape:pageshadow="2"
     inkscape:zoom="0.53417398"
     inkscape:cx="679.45954"
     inkscape:cy="261.60467"
     inkscape:document-units="px"
     inkscape:current-layer="layer1"
     showgrid="false"
     units="px"
     showguides="true"
     inkscape:guide-bbox="true"
     inkscape:window-width="1366"
     inkscape:window-height="715"
     inkscape:window-x="-8"
     inkscape:window-y="-8"
     inkscape:window-maximized="1"
     fit-margin-top="0"
     fit-margin-left="0"
     fit-margin-right="0"
     fit-margin-bottom="0" />
  <metadata
     id="metadata7">
    <rdf:RDF>
      <cc:Work
         rdf:about="">
        <dc:format>image/svg+xml</dc:format>
        <dc:type
           rdf:resource="http://purl.org/dc/dcmitype/StillImage" />
        <dc:title></dc:title>
      </cc:Work>
    </rdf:RDF>
  </metadata>
  <g
     inkscape:label="Layer 1"
     inkscape:groupmode="layer"
     id="layer1"
     transform="translate(-3.2477129e-6,-752.36221)">
    <g
       id="g4178">
      <g
         inkscape:export-ydpi="90"
         inkscape:export-xdpi="90"
         transform="translate(-165.91489,85.780957)"
         id="g4971">
        <path
           style="fill:#1f9aff;fill-opacity:1;stroke:none"
           d="m 761.99321,950.69773 c -0.164,-0.164 -0.48,-0.658 -0.702,-1.0988 -1.6922,-3.3576 -4.6453,-7.8096 -7.0155,-10.5765 -5.626,-6.5681 -12.4536,-10.8627 -20.3269,-12.7859 -6.8577,-1.67517 -13.83578,-1.68207 -22.43117,-0.02 -6.64109,1.2825 -16.62538,4.6894 -21.23887,7.2474 -15.11788,8.3819 -32.06475,13.2657 -51.73793,14.9099 -4.51289,0.377 -17.08347,0.376 -21.74907,0 -21.28317,-1.723 -40.59124,-6.7667 -61.15511,-15.9748 -33.70295,-15.09167 -64.12091,-40.57074 -85.36308,-71.503 -2.13129,-3.10349 -4.48159,-6.74449 -4.35369,-6.74449 0.04,0 0.741,0.535 1.5513,1.1898 13.51498,10.92118 35.28765,22.10147 55.99662,28.75406 20.32427,6.52919 41.52044,9.16248 60.88981,7.56479 16.35628,-1.3491 31.72846,-5.60949 45.08944,-12.49629 2.56009,-1.31959 6.93709,-3.78479 7.23489,-4.07479 0.06,-0.06 -0.55,-0.618 -1.3578,-1.2399 -22.59367,-17.39867 -47.29773,-40.41824 -70.9108,-66.0755 -15.85028,-17.22248 -32.09936,-36.47285 -48.99773,-58.04802 -2.1872,-2.7925 -4.8207,-5.99799 -5.85209,-7.12339 -2.1932,-2.3929 -4.0895,-4.72979 -6.25809,-7.71189 -1.8919,-2.6015 -8.68879,-12.78278 -8.59589,-12.87578 0.04,-0.04 0.802,0.612 1.70019,1.4408 8.52599,7.86718 24.43807,21.18307 41.19115,34.47065 16.87667,13.38568 39.33414,29.99605 57.21442,42.31814 6.33469,4.36549 19.04597,12.60068 21.21667,13.74548 0.40399,0.213 0.33299,0.132 -4.1713,-4.7144 -19.94977,-21.46807 -42.92444,-49.55823 -64.26181,-78.57058 -6.54379,-8.89749 -15.52838,-21.64897 -16.81927,-23.87087 -0.07,-0.125 3.00109,2.8436 6.83049,6.59699 10.12458,9.92369 14.07618,13.70528 21.13837,20.22937 14.90638,13.77038 29.92595,26.78686 45.31213,39.26895 6.56409,5.32509 12.55658,10.04738 21.14287,16.66117 15.51648,11.95198 38.50725,28.07016 48.80273,34.21415 1.4171,0.846 2.7975,1.6832 3.0676,1.861 l 0.491,0.323 0.168,-0.431 c 7.18289,-18.44237 9.53618,-39.21994 6.87239,-60.67631 -2.7255,-21.95337 -10.57189,-44.30094 -23.06847,-65.70191 -2.8402,-4.86409 -6.93359,-11.18968 -9.92419,-15.33628 -1.20699,-1.6735 -1.28429,-1.7989 -1.00789,-1.6349 1.52209,0.903 5.21339,3.2578 7.54539,4.8126 17.98007,11.98738 34.18315,26.79696 47.62783,43.53174 26.41266,32.87625 40.78096,71.16759 40.09436,106.85084 -0.225,11.67049 -1.5232,20.30128 -4.9043,32.59356 l -0.252,0.917 1.1511,1.44589 c 12.174,15.29188 20.4445,33.99775 23.1424,52.34285 1.0597,7.20507 1.1967,14.51287 0.372,19.85447 -0.743,4.8124 -2.1563,7.3754 -3.3884,6.1434 z"
           id="path4138"
           inkscape:connector-curvature="0" />
        <path
           inkscape:connector-curvature="0"
           style="opacity:0.12000002;fill:#003b5b;fill-opacity:1;stroke:none"
           d="m 650.47656,309.79688 c -0.0383,0.0445 0.23148,0.42846 1.13672,1.68359 2.9906,4.1466 7.08363,10.47185 9.92383,15.33594 12.49658,21.40097 20.34286,43.74975 23.06836,65.70312 2.66379,21.45637 0.30984,42.23341 -6.87305,60.67578 l -0.16797,0.43164 -0.49023,-0.32422 c -0.2701,-0.1778 -1.65126,-1.01532 -3.06836,-1.86132 -10.29548,-6.14399 -33.28625,-22.26091 -48.80274,-34.21289 -8.58628,-6.61379 -14.57848,-11.33702 -21.14257,-16.66211 -15.38618,-12.48209 -30.40612,-25.4972 -45.3125,-39.26758 -7.06219,-6.52409 -11.01409,-10.30678 -21.13867,-20.23047 -3.82941,-3.75339 -6.90008,-6.7207 -6.83008,-6.5957 1.29089,2.2219 10.27652,14.97165 16.82031,23.86914 21.33737,29.01235 44.31195,57.10419 64.26172,78.57226 4.50429,4.8464 4.57391,4.92589 4.16992,4.71289 -2.1707,-1.1448 -14.88211,-9.37865 -21.2168,-13.74414 -17.88028,-12.32209 -40.33622,-28.93268 -57.21289,-42.31836 -16.75308,-13.28758 -32.66541,-26.60352 -41.1914,-34.4707 -0.89819,-0.8288 -1.66118,-1.48141 -1.70118,-1.44141 -0.0929,0.093 6.70381,10.2735 8.59571,12.875 2.16859,2.9821 4.06656,5.31999 6.25976,7.71289 1.03139,1.1254 3.66437,4.33055 5.85157,7.12305 16.89837,21.57517 33.14776,40.82635 48.99804,58.04883 23.61307,25.65726 48.31649,48.67555 70.91016,66.07422 0.8078,0.6219 1.41742,1.18023 1.35742,1.24023 -0.2978,0.29 -4.67428,2.75463 -7.23437,4.07422 -13.36098,6.8868 -28.73357,11.14895 -45.08985,12.49805 -19.36937,1.59769 -40.5644,-1.03722 -60.88867,-7.56641 -20.70897,-6.65259 -42.48307,-17.83272 -55.99805,-28.7539 -0.8103,-0.6548 -1.51078,-1.18946 -1.55078,-1.18946 -0.1279,0 2.22223,3.64065 4.35352,6.74414 21.24217,30.93226 51.66033,56.41224 85.36328,71.50391 17.6661,7.91054 34.40858,12.74047 52.26953,15.03906 L 732.36914,401.69922 c -6.613,-15.05875 -15.54419,-29.75864 -26.5918,-43.50977 -13.44468,-16.73478 -29.64688,-31.54387 -47.62695,-43.53125 -2.332,-1.5548 -6.02283,-3.9095 -7.54492,-4.8125 -0.0691,-0.041 -0.11614,-0.0637 -0.12891,-0.0488 z"
           transform="translate(0,372.36216)"
           id="path4834" />
      </g>
      <g
         inkscape:export-ydpi="90"
         inkscape:export-xdpi="90"
         transform="matrix(0.85089333,0,0,0.85089344,22.366,156.91412)"
         id="g4965">
        <g
           id="g4232"
           transform="matrix(2.3504707,0,0,2.3504707,-569.05034,-1094.8047)"
           style="fill:#1f9aff;fill-opacity:1">
          <path
             inkscape:connector-curvature="0"
             id="path4171"
             d="m 288.15602,913.42122 c -3.34416,-0.36572 -6.11157,-2.32629 -7.01616,-4.97069 l -0.21294,-0.62238 -0.0261,-11.84902 -0.0261,-11.84895 -2.98997,-0.003 c -1.6445,-0.003 -3.31316,-0.0448 -3.70813,-0.0958 -4.50688,-0.58296 -8.05902,-3.90386 -8.97121,-8.38719 l -0.17286,-0.84953 0,-31.93241 0,-31.9324 40.81399,-0.024 40.81399,-0.024 -0.0249,32.2437 -0.0246,32.2437 -0.25673,0.92934 c -0.69462,2.5145 -2.26282,4.69338 -4.38339,6.09041 -1.02094,0.67258 -1.95891,1.08556 -3.25215,1.43192 l -0.91667,0.2455 -3.517,0.0408 -3.51695,0.0408 -0.0258,11.84008 -0.0258,11.84006 -0.2129,0.62238 c -0.76698,2.24201 -2.85516,4.00568 -5.56593,4.70081 -4.81678,1.23532 -9.95097,-1.25313 -10.78538,-5.22748 l -0.1407,-0.6702 -0.003,-11.56173 -0.003,-11.56175 -8.1844,0 -8.18437,0 -0.0261,11.89684 -0.0261,11.89684 -0.25115,0.64554 c -1.05089,2.70111 -3.67148,4.50058 -7.0737,4.85715 -1.01237,0.10605 -1.08903,0.1059 -2.10647,-0.008 z m -39.58033,-48.30246 c -1.97662,-0.39274 -3.55023,-1.22201 -4.76754,-2.51238 -0.78372,-0.83081 -1.26588,-1.6747 -1.51632,-2.65398 l -0.19124,-0.74769 10e-4,-20.78621 0.003,-20.78622 0.1368,-0.64583 c 0.2855,-1.34727 1.32819,-2.86569 2.57504,-3.74989 2.7395,-1.94266 6.44964,-2.31869 9.57118,-0.97002 1.17161,0.50622 1.76514,0.90092 2.59749,1.72727 0.79913,0.79335 1.28128,1.56511 1.64501,2.63311 l 0.17934,0.52659 0,21.20849 0,21.20846 -0.23131,0.70625 c -0.78705,2.40293 -3.19019,4.26457 -6.25574,4.84609 -0.93585,0.17752 -2.84273,0.17548 -3.7461,-0.005 z m 110.72208,-0.0327 c -3.07765,-0.68095 -5.24388,-2.45415 -6.09481,-4.98895 l -0.17681,-0.52662 -0.0276,-20.63397 -0.0276,-20.63398 0.10605,-0.81231 c 0.34931,-2.67586 2.55587,-4.85127 5.79687,-5.71497 l 0.95067,-0.25333 1.532,-0.005 1.53198,-0.005 0.83455,0.21648 c 3.09035,0.80169 5.24869,2.68995 5.86708,5.13299 l 0.14445,0.57066 0,20.92507 0,20.92506 -0.1443,0.6125 c -0.29042,1.23206 -1.16661,2.53006 -2.34229,3.46993 -0.74848,0.59836 -2.25297,1.33421 -3.30335,1.61565 l -0.76599,0.20525 -1.53198,0.0398 -1.53199,0.0399 -0.81385,-0.18008 z m -94.3131,-60.22511 c 0,-0.60923 0.33281,-3.13552 0.58171,-4.41562 1.3105,-6.74012 4.31743,-12.70528 8.69933,-17.25777 2.79449,-2.90327 5.51257,-4.88216 9.27041,-6.74932 1.01371,-0.5037 1.84316,-0.93075 1.84316,-0.94901 0,-0.0183 -1.50556,-2.29272 -3.34569,-5.05438 -2.04651,-3.07136 -3.36918,-5.1462 -3.40613,-5.34313 -0.0809,-0.43091 0.183,-1.07261 0.54776,-1.33234 0.39784,-0.2833 1.01479,-0.33663 1.45854,-0.126 l 0.35628,0.16907 3.54844,5.3235 c 1.95164,2.92791 3.56006,5.33755 3.57431,5.35471 0.0135,0.0171 0.43137,-0.0987 0.92701,-0.25745 2.94828,-0.94441 6.85773,-1.71864 10.17525,-2.01512 0.63194,-0.0564 1.61968,-0.1461 2.19494,-0.19933 1.35164,-0.12495 7.27633,-0.1251 8.63203,-3e-4 0.5753,0.053 1.54146,0.14085 2.14707,0.19515 3.60078,0.32326 7.42487,1.07955 10.46668,2.06997 0.41147,0.13395 0.76078,0.22838 0.77624,0.20978 0.0155,-0.0186 1.62605,-2.42987 3.57911,-5.35837 l 3.55102,-5.32455 0.35408,-0.16802 c 0.4428,-0.21013 1.05963,-0.1554 1.45977,0.12945 0.34977,0.24905 0.63854,0.94523 0.55838,1.34609 -0.0314,0.15669 -1.57007,2.55388 -3.41936,5.3271 -1.84931,2.77321 -3.32649,5.07457 -3.28264,5.11414 0.0438,0.0396 0.53214,0.2768 1.08512,0.52716 3.79398,1.71788 7.21879,4.14502 10.14942,7.19283 5.04984,5.25174 8.31598,12.53312 9.13827,20.37226 0.0822,0.78358 0.1494,1.48373 0.1494,1.55592 l 0,0.13125 -40.88497,0 -40.88497,0 0,-0.46761 z m 24.39158,-11.34976 c 0.79875,-0.21264 1.37157,-0.53216 1.96632,-1.09676 0.94541,-0.89756 1.4106,-1.97564 1.40829,-3.26369 -0.006,-3.33076 -3.45039,-5.45286 -6.46198,-3.98128 -3.22129,1.57407 -3.31435,6.21609 -0.15902,7.93343 0.95155,0.5179 2.23048,0.67876 3.24639,0.4083 z m 34.92116,-0.0105 c 2.61516,-0.68117 4.01029,-3.36575 3.08038,-5.92761 -0.53954,-1.48641 -1.717,-2.46196 -3.38112,-2.80132 l -0.72795,-0.1485 -0.68054,0.11055 c -2.03226,0.33 -3.49871,1.78334 -3.80822,3.77416 l -0.1125,0.72389 0.12195,0.68277 c 0.46364,2.59429 2.99306,4.2411 5.50798,3.58606 z"
             style="fill:#1f9aff;fill-opacity:1" />
        </g>
        <g
           style="opacity:0.12000002;fill:#1f9aff;fill-opacity:1"
           transform="matrix(2.3504707,0,0,2.3504707,-569.05034,-1094.8047)"
           id="g4839">
          <path
             inkscape:connector-curvature="0"
             style="fill:#003b5b;fill-opacity:1"
             d="m 89.275391,327.43164 c -0.761672,-0.0256 -1.548368,0.17952 -2.132813,0.5957 -0.857358,0.61049 -1.477262,2.11802 -1.287109,3.13086 0.08685,0.46288 3.195597,5.33946 8.005859,12.5586 4.325172,6.4912 7.863282,11.83784 7.863282,11.88086 0,0.0429 -1.949336,1.04653 -4.332032,2.23046 -8.832693,4.38871 -15.220696,9.04119 -21.789062,15.86524 -10.299528,10.70049 -17.366974,24.72004 -20.447266,40.5625 -0.585032,3.00884 -1.367188,8.94693 -1.367188,10.37891 l 0,1.09961 96.097658,0 68.8418,0 20.54101,-28.66211 c -3.70605,-8.7261 -8.8111,-16.63336 -15.11328,-23.1875 -6.88836,-7.16379 -14.93783,-12.86843 -23.85547,-16.90625 -1.29976,-0.58847 -2.44783,-1.14716 -2.55078,-1.24024 -0.10307,-0.093 3.36809,-5.50118 7.71484,-12.01953 4.34671,-6.51837 7.96331,-12.15319 8.03711,-12.52148 0.18842,-0.94221 -0.49037,-2.57868 -1.3125,-3.16407 -0.94051,-0.66953 -2.39085,-0.79859 -3.43164,-0.30468 l -0.83203,0.39453 -8.3457,12.51562 c -4.59061,6.88336 -8.37568,12.55199 -8.41211,12.59571 -0.0363,0.0437 -0.85902,-0.1793 -1.82617,-0.49415 -7.14969,-2.32795 -16.13804,-4.10542 -24.60157,-4.86523 -1.42346,-0.12763 -3.69269,-0.33441 -5.04492,-0.45898 -3.18653,-0.29334 -17.11402,-0.29174 -20.29101,0.002 -1.35213,0.12511 -3.67285,0.33423 -5.15821,0.4668 -7.79773,0.69686 -16.98617,2.51847 -23.91601,4.73828 -1.16499,0.37313 -2.14796,0.64371 -2.17969,0.60351 -0.0335,-0.0403 -3.81507,-5.70397 -8.402343,-12.58594 l -8.339844,-12.51171 -0.837891,-0.39844 c -0.391133,-0.18566 -0.837918,-0.28346 -1.294921,-0.29883 z m 101.507809,49.63477 1.71094,0.34961 c 3.91147,0.79765 6.67909,3.09022 7.94727,6.58398 2.18572,6.02158 -1.09338,12.33252 -7.24024,13.93359 -5.91124,1.53966 -11.85749,-2.33188 -12.94726,-8.42968 l -0.28516,-1.60352 0.26367,-1.70312 c 0.7275,-4.67937 4.17441,-8.09544 8.95117,-8.8711 l 1.59961,-0.25976 z m -81.5625,0.1875 c 5.26395,0.3106 9.82146,4.58343 9.83203,10.45507 0.005,3.02753 -1.08838,5.56219 -3.31054,7.67188 -1.39794,1.32708 -2.74561,2.07637 -4.62305,2.57617 -2.38787,0.63571 -5.39232,0.25833 -7.62891,-0.95898 -7.416506,-4.03656 -7.198497,-14.94668 0.37305,-18.64649 1.76966,-0.86472 3.60277,-1.20119 5.35742,-1.09765 z m 100.13868,61.55468 -59.52735,0.0352 -95.931639,0.0566 0,75.05664 0,75.05469 0.40625,1.99805 c 2.144075,10.53793 10.494601,18.34266 21.08789,19.71289 0.928366,0.11987 4.849495,0.21755 8.714844,0.22461 l 1.882813,0.002 123.367192,-172.14063 z m -189.123052,1.35743 c -4.912075,-0.11367 -9.829069,1.30239 -13.8535155,4.15625 -2.9306844,2.07828 -5.381675,5.64773 -6.05273438,8.81445 L 0.00976563,454.6543 0.00195313,503.51172 0,552.36914 l 0.44921875,1.75781 c 0.58865185,2.30177 1.72234225,4.28354 3.56445315,6.23633 2.8612515,3.03298 6.5590911,4.98313 11.2050781,5.90625 l 0.002,-0.002 c 2.123345,0.42421 6.605,0.42897 8.804688,0.0117 7.205485,-1.36685 12.85514,-5.74261 14.705078,-11.39063 l 0.542969,-1.66015 0,-49.84961 0,-49.84961 -0.421876,-1.23828 c -0.854936,-2.51031 -1.986902,-4.32471 -3.865234,-6.18946 -1.956414,-1.94231 -3.351634,-2.87069 -6.105469,-4.06054 -2.751408,-1.18876 -5.697286,-1.80681 -8.644531,-1.875 z"
             transform="matrix(0.4254467,0,0,0.4254467,242.10059,624.2013)"
             id="path4841" />
        </g>
      </g>
      <g
         inkscape:export-ydpi="90"
         inkscape:export-xdpi="90"
         transform="matrix(1.1313966,0,0,1.1313964,-415.57561,-46.821149)"
         id="g4879">
        <g
           id="g4818"
           transform="translate(194.69312,243.3664)">
          <rect
             y="596.51819"
             x="703.89056"
             height="104.83472"
             width="263.95895"
             id="rect4803"
             style="opacity:1;fill:#ffffff;fill-opacity:1;stroke:#003b5b;stroke-width:1.20000005;stroke-linecap:butt;stroke-linejoin:bevel;stroke-miterlimit:4;stroke-dasharray:none;stroke-opacity:1" />
          <rect
             y="490.79092"
             x="703.93408"
             height="106.6197"
             width="263.8718"
             id="rect4149"
             style="opacity:1;fill:#1f9aff;fill-opacity:1;stroke:#003b5b;stroke-width:1.20000005;stroke-linecap:butt;stroke-linejoin:bevel;stroke-miterlimit:4;stroke-dasharray:none;stroke-opacity:1" />
          <rect
             y="489.81137"
             x="703.8905"
             height="16.848442"
             width="263.95895"
             id="rect4805"
             style="opacity:1;fill:#ffffff;fill-opacity:1;stroke:#003b5b;stroke-width:1.20000005;stroke-linecap:butt;stroke-linejoin:bevel;stroke-miterlimit:4;stroke-dasharray:none;stroke-opacity:1" />
          <circle
             r="3.3624117"
             cy="498.39615"
             cx="716.7868"
             id="path4153"
             style="opacity:1;fill:none;fill-opacity:1;stroke:#003b5b;stroke-width:2.5;stroke-linecap:butt;stroke-linejoin:bevel;stroke-miterlimit:4;stroke-dasharray:none;stroke-opacity:1" />
          <circle
             style="opacity:1;fill:none;fill-opacity:1;stroke:#003b5b;stroke-width:2.5;stroke-linecap:butt;stroke-linejoin:bevel;stroke-miterlimit:4;stroke-dasharray:none;stroke-opacity:1"
             id="circle4155"
             cx="733.85077"
             cy="498.39615"
             r="3.3624117" />
          <circle
             r="3.3624117"
             cy="498.39615"
             cx="751.85083"
             id="circle4157"
             style="opacity:1;fill:none;fill-opacity:1;stroke:#003b5b;stroke-width:2.5;stroke-linecap:butt;stroke-linejoin:bevel;stroke-miterlimit:4;stroke-dasharray:none;stroke-opacity:1" />
          <path
             inkscape:connector-curvature="0"
             id="path4167"
             d="m 926.40848,623.91878 -48.67328,0"
             style="fill:none;fill-rule:evenodd;stroke:#003b5b;stroke-width:3.79999995;stroke-linecap:butt;stroke-linejoin:miter;stroke-miterlimit:4;stroke-dasharray:none;stroke-opacity:1" />
          <path
             style="fill:none;fill-rule:evenodd;stroke:#003b5b;stroke-width:3.79999995;stroke-linecap:butt;stroke-linejoin:miter;stroke-miterlimit:4;stroke-dasharray:none;stroke-opacity:1"
             d="m 911.43209,639.91878 -33.69689,0"
             id="path4169"
             inkscape:connector-curvature="0" />
          <path
             inkscape:connector-curvature="0"
             id="path4172"
             d="m 917.04823,655.91878 -39.31303,0"
             style="fill:none;fill-rule:evenodd;stroke:#003b5b;stroke-width:3.79999995;stroke-linecap:butt;stroke-linejoin:miter;stroke-miterlimit:4;stroke-dasharray:none;stroke-opacity:1" />
          <path
             style="fill:none;fill-rule:evenodd;stroke:#003b5b;stroke-width:3.79999995;stroke-linecap:butt;stroke-linejoin:miter;stroke-miterlimit:4;stroke-dasharray:none;stroke-opacity:1"
             d="m 898.32774,669.91878 -20.59254,0"
             id="path4174"
             inkscape:connector-curvature="0" />
          <rect
             ry="0"
             y="614.88092"
             x="734.67505"
             height="66.186935"
             width="116.48901"
             id="rect4180"
             style="opacity:1;fill:#1f9aff;fill-opacity:1;stroke:#003b5b;stroke-width:1.20000005;stroke-linecap:butt;stroke-linejoin:bevel;stroke-miterlimit:4;stroke-dasharray:none;stroke-opacity:1" />
          <path
             sodipodi:nodetypes="ccc"
             inkscape:connector-curvature="0"
             id="path4182"
             d="m 831.01369,578.43135 8.62831,8.62831 8.792,-8.9285"
             style="fill:none;fill-rule:evenodd;stroke:#003b5b;stroke-width:3.79999995;stroke-linecap:butt;stroke-linejoin:miter;stroke-miterlimit:4;stroke-dasharray:none;stroke-opacity:1" />
        </g>
        <g
           transform="translate(194.69312,243.3664)"
           id="g4846">
          <path
             inkscape:connector-curvature="0"
             style="opacity:0.12000002;fill:#003b5b;fill-opacity:1;stroke:none;stroke-width:1.20000005;stroke-linecap:butt;stroke-linejoin:bevel;stroke-miterlimit:4;stroke-dasharray:none;stroke-opacity:1"
             d="m 898.62695,361.79492 0,106.61914 132.87305,0 71.8281,-106.61914 -204.70115,0 z"
             transform="translate(-194.69312,128.99576)"
             id="rect4850" />
          <rect
             style="opacity:1;fill:#ffffff;fill-opacity:1;stroke:#003b5b;stroke-width:1.20000005;stroke-linecap:butt;stroke-linejoin:bevel;stroke-miterlimit:4;stroke-dasharray:none;stroke-opacity:1"
             id="rect4852"
             width="263.95895"
             height="16.848442"
             x="703.8905"
             y="489.81137" />
          <circle
             style="opacity:1;fill:none;fill-opacity:1;stroke:#003b5b;stroke-width:2.5;stroke-linecap:butt;stroke-linejoin:bevel;stroke-miterlimit:4;stroke-dasharray:none;stroke-opacity:1"
             id="circle4854"
             cx="716.7868"
             cy="498.39615"
             r="3.3624117" />
          <circle
             r="3.3624117"
             cy="498.39615"
             cx="733.85077"
             id="circle4856"
             style="opacity:1;fill:none;fill-opacity:1;stroke:#003b5b;stroke-width:2.5;stroke-linecap:butt;stroke-linejoin:bevel;stroke-miterlimit:4;stroke-dasharray:none;stroke-opacity:1" />
          <circle
             style="opacity:1;fill:none;fill-opacity:1;stroke:#003b5b;stroke-width:2.5;stroke-linecap:butt;stroke-linejoin:bevel;stroke-miterlimit:4;stroke-dasharray:none;stroke-opacity:1"
             id="circle4858"
             cx="751.85083"
             cy="498.39615"
             r="3.3624117" />
          <path
             style="fill:none;fill-rule:evenodd;stroke:#003b5b;stroke-width:3.79999995;stroke-linecap:butt;stroke-linejoin:miter;stroke-miterlimit:4;stroke-dasharray:none;stroke-opacity:1"
             d="m 926.40848,623.91878 -48.67328,0"
             id="path4860"
             inkscape:connector-curvature="0" />
          <path
             inkscape:connector-curvature="0"
             id="path4862"
             d="m 911.43209,639.91878 -33.69689,0"
             style="fill:none;fill-rule:evenodd;stroke:#003b5b;stroke-width:3.79999995;stroke-linecap:butt;stroke-linejoin:miter;stroke-miterlimit:4;stroke-dasharray:none;stroke-opacity:1" />
          <path
             style="fill:none;fill-rule:evenodd;stroke:#003b5b;stroke-width:3.79999995;stroke-linecap:butt;stroke-linejoin:miter;stroke-miterlimit:4;stroke-dasharray:none;stroke-opacity:1"
             d="m 917.04823,655.91878 -39.31303,0"
             id="path4864"
             inkscape:connector-curvature="0" />
          <path
             inkscape:connector-curvature="0"
             id="path4866"
             d="m 898.32774,669.91878 -20.59254,0"
             style="fill:none;fill-rule:evenodd;stroke:#003b5b;stroke-width:3.79999995;stroke-linecap:butt;stroke-linejoin:miter;stroke-miterlimit:4;stroke-dasharray:none;stroke-opacity:1" />
          <rect
             style="opacity:1;fill:#1f9aff;fill-opacity:1;stroke:#003b5b;stroke-width:1.20000005;stroke-linecap:butt;stroke-linejoin:bevel;stroke-miterlimit:4;stroke-dasharray:none;stroke-opacity:1"
             id="rect4868"
             width="116.48901"
             height="66.186935"
             x="734.67505"
             y="614.88092"
             ry="0" />
          <path
             inkscape:connector-curvature="0"
             style="opacity:0.12000002;fill:#003b5b;fill-opacity:1;stroke:none;stroke-width:1.20000005;stroke-linecap:butt;stroke-linejoin:bevel;stroke-miterlimit:4;stroke-dasharray:none;stroke-opacity:1"
             d="m 898.58398,467.52148 0,104.83594 62.89063,0 70.62699,-104.83594 -133.51762,0 z"
             transform="translate(-194.69312,128.99576)"
             id="rect4848" />
          <path
             style="fill:none;fill-rule:evenodd;stroke:#003b5b;stroke-width:3.79999995;stroke-linecap:butt;stroke-linejoin:miter;stroke-miterlimit:4;stroke-dasharray:none;stroke-opacity:1"
             d="m 831.01369,578.43135 8.62831,8.62831 8.792,-8.9285"
             id="path4870"
             inkscape:connector-curvature="0"
             sodipodi:nodetypes="ccc" />
        </g>
      </g>
      <g
         inkscape:export-ydpi="90"
         inkscape:export-xdpi="90"
         transform="matrix(0.95730265,0,0,0.95730221,-398.91733,52.173887)"
         id="g4975">
        <path
           style="fill:#003b5b;fill-opacity:1;fill-rule:evenodd;stroke:#003b5b;stroke-width:3.78616619;stroke-linecap:butt;stroke-linejoin:round;stroke-miterlimit:4;stroke-dasharray:none;stroke-opacity:1"
           d="m 1402.1232,946.34169 0,60.90051 c -0.3147,11.1014 -1.0835,10.4221 6.6098,14.5637 13.2198,7.0696 46.6708,21.0999 103.946,21.0999 51.0909,0 84.2091,-12.3593 100.5911,-20.5834 15.3953,-7.4695 12.1756,-6.4428 12.1756,-23.0238 l 0,-55.60475 z"
           id="path4915"
           inkscape:connector-curvature="0"
           sodipodi:nodetypes="cccscccc" />
        <ellipse
           style="opacity:1;fill:#1f9aff;fill-opacity:1;stroke:none;stroke-width:1.20000005;stroke-linecap:butt;stroke-linejoin:bevel;stroke-miterlimit:4;stroke-dasharray:none;stroke-opacity:1"
           id="ellipse4917"
           cx="1513.4958"
           cy="942.37708"
           rx="113.49583"
           ry="33.093468" />
        <path
           sodipodi:nodetypes="cccscccc"
           inkscape:connector-curvature="0"
           id="path4911"
           d="m 1402.1232,862.34169 0,60.90048 c -0.3147,11.10139 -1.0835,10.42211 6.6098,14.56374 13.2198,7.06955 46.6708,21.09987 103.946,21.09987 51.0909,0 84.2091,-12.35926 100.5911,-20.5834 15.3953,-7.46943 12.1756,-6.44279 12.1756,-23.02375 l 0,-55.60478 z"
           style="fill:#003b5b;fill-opacity:1;fill-rule:evenodd;stroke:#003b5b;stroke-width:3.78616619;stroke-linecap:butt;stroke-linejoin:round;stroke-miterlimit:4;stroke-dasharray:none;stroke-opacity:1" />
        <ellipse
           ry="33.093468"
           rx="113.49583"
           cy="858.37708"
           cx="1513.4958"
           id="ellipse4913"
           style="opacity:1;fill:#1f9aff;fill-opacity:1;stroke:none;stroke-width:1.20000005;stroke-linecap:butt;stroke-linejoin:bevel;stroke-miterlimit:4;stroke-dasharray:none;stroke-opacity:1" />
        <path
           style="fill:#003b5b;fill-opacity:1;fill-rule:evenodd;stroke:#003b5b;stroke-width:3.78616619;stroke-linecap:butt;stroke-linejoin:round;stroke-miterlimit:4;stroke-dasharray:none;stroke-opacity:1"
           d="m 1402.1232,778.34169 0,60.90048 c -0.3147,11.10139 -1.0835,10.42211 6.6098,14.56374 13.2198,7.06955 46.6708,21.09987 103.946,21.09987 51.0909,0 84.2091,-12.35926 100.5911,-20.5834 15.3953,-7.46943 12.1756,-6.44279 12.1756,-23.02375 l 0,-55.60478 z"
           id="path4909"
           inkscape:connector-curvature="0"
           sodipodi:nodetypes="cccscccc" />
        <ellipse
           style="opacity:1;fill:#1f9aff;fill-opacity:1;stroke:none;stroke-width:1.20000005;stroke-linecap:butt;stroke-linejoin:bevel;stroke-miterlimit:4;stroke-dasharray:none;stroke-opacity:1"
           id="path4907"
           cx="1513.6687"
           cy="774.37708"
           rx="113.66869"
           ry="42.359638" />
        <path
           inkscape:connector-curvature="0"
           style="opacity:0.12000002;fill:#003b5b;fill-opacity:1;stroke:#003b5b;stroke-width:1.20000005;stroke-linecap:butt;stroke-linejoin:bevel;stroke-miterlimit:4;stroke-dasharray:none;stroke-opacity:1"
           d="M 1513.8418,359.65625 A 113.84153,42.359638 0 0 0 1400,402.01562 a 113.84153,42.359638 0 0 0 113.8418,42.35938 113.84153,42.359638 0 0 0 0.6484,-0.008 l 46.5879,-80.84571 a 113.84153,42.359638 0 0 0 -47.2363,-3.86523 z"
           id="ellipse4937"
           transform="translate(0,372.36216)" />
        <path
           style="opacity:0.12000002;fill:#003b5b;fill-opacity:1;fill-rule:evenodd;stroke:#003b5b;stroke-width:3.78616619;stroke-linecap:butt;stroke-linejoin:round;stroke-miterlimit:4;stroke-dasharray:none;stroke-opacity:1"
           d="m 1509.6445,488.70508 -105.1814,-9.48889 c -3.6318,3.89782 -2.1469,11.50961 -2.1764,17.00235 l -0.1637,54.66232 c -0.3147,11.10139 -1.0839,10.42087 6.6094,14.5625 12.2696,6.56139 41.9818,19.11145 91.9785,20.88281 z"
           id="path4950"
           inkscape:connector-curvature="0"
           sodipodi:nodetypes="ccccccc"
           transform="translate(0,372.36216)" />
        <path
           sodipodi:nodetypes="ccccccc"
           inkscape:connector-curvature="0"
           id="path4963"
           d="m 1505.9323,945.04059 -101.5894,-9.49462 c -3.5077,3.90017 -2.0736,11.51656 -2.1021,17.01263 l -0.158,54.6953 c -0.304,11.1082 -1.0469,10.4272 6.3837,14.5714 11.8505,6.5654 40.5479,19.123 88.8372,20.8954 z"
           style="opacity:0.12000002;fill:#003b5b;fill-opacity:1;fill-rule:evenodd;stroke:#003b5b;stroke-width:3.72207785;stroke-linecap:butt;stroke-linejoin:round;stroke-miterlimit:4;stroke-dasharray:none;stroke-opacity:1" />
      </g>
    </g>
  </g>
</svg>
